 <!-- featuredWines = @top_level_items.select {|p| p.navigable_type == 'Folder' }.map(&:children).flatten  -->
<% tlps = @top_level_items.map{|p| p.navigable_type == 'Folder' ? p.children : p }.flatten %>
<% tlps.each_with_index do |nav_item, i| %>

	<% if nav_item.navigable_type != 'Folder' && nav_item.navigable_object.template.name == 'feature_wine_page.page' %>

		<%
			current_class = ''
			if i == 0
				current_class = ' current'
			end
		%>

		<div class="gallery_item<%= current_class %>">
			<div class="link_to_wine_page"><%= nav_item.id %></div>

			<span class="heading"><%= nav_item.page_elements('wine_heading', :text) %></span>
			<span class="sub_heading"><%= nav_item.page_elements('wine_sub_heading', :text) %></span>
			<span class="detail"><%= nav_item.page_elements('wine_detail', :text) %></span>

			<div class="more_about blue_button type_1">
				<span class="medium">more about this wine</span>
				<div class="click_region"></div>
			</div>

			<div class="squircle sprite">
				<div class="price">
					<span class="dollar"><%= nav_item.page_elements('wine_each_dollar', :text) %></span>
					<span class="dollar_value"><%= nav_item.page_elements('wine_each_dollar_value', :text) %></span>
					<span class="cents_value"><%= nav_item.page_elements('wine_each_cents_value', :text) %></span>
					<span class="text"><%= nav_item.page_elements('wine_each_text', :text) %></span>
				</div>

				<!-- <div class="was">
					<div class="was_strike_through"></div>
					<span class="dollar"> = nav_item.page_elements('wine_was_dollar', :text) </span>
					<span class="dollar_value"> = nav_item.page_elements('wine_was_dollar_value', :text) </span>
					<span class="cents_value"> = nav_item.page_elements('wine_was_cents_value', :text) </span>
				</div> -->

				<!-- <div class="save">
					<span class="text"> = nav_item.page_elements('wine_save_text', :text)  </span>
					<span class="dollar"> = nav_item.page_elements('wine_save_dollar', :text)  </span>
					<span class="dollar_value"> = nav_item.page_elements('wine_save_dollar_value', :text)  </span>
					<span class="cents_value"> = nav_item.page_elements('wine_save_cents_value', :text)  </span>
				</div> -->

				<div class="deal">
					<span class="dollar"><%= nav_item.page_elements('wine_deal_price_dollar', :text) %></span>
					<span class="dollar_value"><%= nav_item.page_elements('wine_deal_price_dollar_value', :text) %></span>
					<span class="cents_value"><%= nav_item.page_elements('wine_deal_price_cents_value', :text) %></span>

					<span class="price_info line_1"><%= nav_item.page_elements('wine_deal_info_line_1', :text) %></span>
					<span class="price_info line_2"><%= nav_item.page_elements('wine_deal_info_line_2', :text) %></span>
				</div>
			</div>



			<% if nav_item.page_elements('wine_image').try(:asset) %>
				<img src="<%= nav_item.page_elements('wine_image').asset.url(:web) %>" width="140" height="370">
			<% else %>
				<img src="/templates/firstchoice_wine_selector_v2/img/bottle_gray.png" width="225" height="730">
			<% end %>

		</div>






	<% end %>

<% end %>

