<div data-stats="Wine-Selector-Gallery-Scrolled" class="wine_filter_gallery transitionAll">

	<div class="gallery_viewport">
		<div class="gallery_slide_content">




		<% tlps = @top_level_items.map{|p| p.navigable_type == 'Folder' ? p.children : p }.flatten %>
		<% tlps.each_with_index do |nav_item, i| %>

			<% if nav_item.navigable_type != 'Folder' &&( nav_item.navigable_object.template.name == 'feature_wine_page.page' || nav_item.navigable_object.template.name == 'wine_page.page') %>


				<% 
					myDollarPrice = nav_item.page_elements('wine_each_dollar_value', :text).to_i
					myCentsPrice = nav_item.page_elements('wine_each_cents_value', :text).to_i
					myPrice = ( myDollarPrice * 100 ) + myCentsPrice
					

					price_range_class = ''

					# if  myPrice < 1001
					#	price_range_class << 'less_10'
					# end

					# if myPrice < 2001 && myPrice >= 1000
					if myPrice < 2001
						price_range_class << '10_20'
					end

					if myPrice < 3001 && myPrice >= 2000
						price_range_class << '20_30'
					end

					if myPrice < 5001 && myPrice >= 3000
						price_range_class << '30_50'
					end

					# if myPrice < 10001 && myPrice >= 5000
					if myPrice >= 5000
						price_range_class << '50_100'
					end

					# if myPrice > 10000
					#	price_range_class << 'over_100'
					# end

				%>

	
		

				
			
				
				<div class="panel filter_<%= nav_item.page_elements('classification', :selected) %> filter_<%= price_range_class %>">

					<div class="link_to_wine_page"><%= nav_item.id %></div>

					<span class="heading"><%= nav_item.page_elements('wine_heading', :text) %></span>
					<span class="sub_heading"><%= nav_item.page_elements('wine_sub_heading', :text) %></span>
					<span class="detail"><%= nav_item.page_elements('wine_detail', :text) %></span>
					

					<div class="more_about blue_button type_1">
						<span class="medium">more info</span>
						<div class="click_region"></div>
					</div>



					<div class="squircle sprite">
						<div class="price">
							<span class="dollar"><%= nav_item.page_elements('wine_each_dollar', :text) %></span>
							<span class="dollar_value"><%= nav_item.page_elements('wine_each_dollar_value', :text) %></span>
							<span class="cents_value"><%= nav_item.page_elements('wine_each_cents_value', :text) %></span>
							<span class="text"><%= nav_item.page_elements('wine_each_text', :text) %></span>
						</div>

						<div class="deal">
							<span class="dollar"><%= nav_item.page_elements('wine_deal_price_dollar', :text) %></span>
							<span class="dollar_value"><%= nav_item.page_elements('wine_deal_price_dollar_value', :text) %></span>
							<span class="cents_value"><%= nav_item.page_elements('wine_deal_price_cents_value', :text) %></span>

							<span class="price_info line_1"><%= nav_item.page_elements('wine_deal_info_line_1', :text) %></span>
							<span class="price_info line_2"><%= nav_item.page_elements('wine_deal_info_line_2', :text) %></span>
						</div>
					</div>



					<% if nav_item.page_elements('wine_image').try(:asset) %>
						<img src="<%= nav_item.page_elements('wine_image').asset.url(:web) %>" width="140" height="370">
					<% else %>
						<img src="/templates/firstchoice_wine_selector/img/bottle_gray.png" width="140" height="370">
					<% end %>


				</div> <!-- end panel -->





			




		<% end %>
	<% end %>




		</div> <!-- end gallery slide content -->

	</div> <!-- end gallery viewport -->



	<div class="gallery_nav_wrap">
		<div class="gallery_nav left sprite"></div>
		<div class="gallery_nav right sprite"></div>
		<!-- populate pagination with js -->
		<div class="inicator_area">
			<div class="indicator_bar"></div>
		</div>
	</div>




</div>


